a - 1x
b - 1x
c - 3x
c1 - 1x
d - 1x
d1 - 2x
e - 4x
f - 1x
f1 - 2x
g - 8x
h - 3x
h1 - 2x
i - 3x
i1 - 2x
j - 9x
k - 2x
l - 3x
m - 2x
n - 4x
o - 5x
p - 3x
q - 3x
r - 3x
s - 4x

am caluculat, chiar ies 72 ;)